Nibble/simulation/qsim/Nibble.msim.vcd
$comment
	File created using the following command:
		vcd file Nibble.msim.vcd -direction
$end
$date
	Fri Nov  4 11:18:32 2016
$end
$version
	ModelSim Version 10.4d
$end
$timescale
	1ps
$end

$scope module Nibble_vlg_vec_tst $end
$var reg 1 ! Clock $end
$var wire 1 " ADDR [4] $end
$var wire 1 # ADDR [3] $end
$var wire 1 $ ADDR [2] $end
$var wire 1 % ADDR [1] $end
$var wire 1 & ADDR [0] $end
$var wire 1 ' AOP [2] $end
$var wire 1 ( AOP [1] $end
$var wire 1 ) AOP [0] $end
$var wire 1 * AX [7] $end
$var wire 1 + AX [6] $end
$var wire 1 , AX [5] $end
$var wire 1 - AX [4] $end
$var wire 1 . AX [3] $end
$var wire 1 / AX [2] $end
$var wire 1 0 AX [1] $end
$var wire 1 1 AX [0] $end
$var wire 1 2 AY [7] $end
$var wire 1 3 AY [6] $end
$var wire 1 4 AY [5] $end
$var wire 1 5 AY [4] $end
$var wire 1 6 AY [3] $end
$var wire 1 7 AY [2] $end
$var wire 1 8 AY [1] $end
$var wire 1 9 AY [0] $end
$var wire 1 : DOP [2] $end
$var wire 1 ; DOP [1] $end
$var wire 1 < DOP [0] $end
$var wire 1 = DX [7] $end
$var wire 1 > DX [6] $end
$var wire 1 ? DX [5] $end
$var wire 1 @ DX [4] $end
$var wire 1 A DX [3] $end
$var wire 1 B DX [2] $end
$var wire 1 C DX [1] $end
$var wire 1 D DX [0] $end
$var wire 1 E DY [7] $end
$var wire 1 F DY [6] $end
$var wire 1 G DY [5] $end
$var wire 1 H DY [4] $end
$var wire 1 I DY [3] $end
$var wire 1 J DY [2] $end
$var wire 1 K DY [1] $end
$var wire 1 L DY [0] $end
$var wire 1 M ENDR [4] $end
$var wire 1 N ENDR [3] $end
$var wire 1 O ENDR [2] $end
$var wire 1 P ENDR [1] $end
$var wire 1 Q ENDR [0] $end
$var wire 1 R MEMO [7] $end
$var wire 1 S MEMO [6] $end
$var wire 1 T MEMO [5] $end
$var wire 1 U MEMO [4] $end
$var wire 1 V MEMO [3] $end
$var wire 1 W MEMO [2] $end
$var wire 1 X MEMO [1] $end
$var wire 1 Y MEMO [0] $end
$var wire 1 Z O [7] $end
$var wire 1 [ O [6] $end
$var wire 1 \ O [5] $end
$var wire 1 ] O [4] $end
$var wire 1 ^ O [3] $end
$var wire 1 _ O [2] $end
$var wire 1 ` O [1] $end
$var wire 1 a O [0] $end
$var wire 1 b WE $end

$scope module i1 $end
$var wire 1 c gnd $end
$var wire 1 d vcc $end
$var wire 1 e unknown $end
$var tri1 1 f devclrn $end
$var tri1 1 g devpor $end
$var tri1 1 h devoe $end
$var wire 1 i Clock~input_o $end
$var wire 1 j inst333|inst|inst~0_combout $end
$var wire 1 k inst123456|inst011215~combout $end
$var wire 1 l inst5~combout $end
$var wire 1 m inst333|inst|inst~q $end
$var wire 1 n inst333|inst|inst2~0_combout $end
$var wire 1 o inst333|inst|inst2~q $end
$var wire 1 p inst333|inst|inst3~0_combout $end
$var wire 1 q inst333|inst|inst3~q $end
$var wire 1 r inst333|inst|inst4~0_combout $end
$var wire 1 s inst333|inst|inst4~q $end
$var wire 1 t inst333|inst|inst5~0_combout $end
$var wire 1 u inst333|inst|inst5~q $end
$var wire 1 v inst333|inst2|rom~1_combout $end
$var wire 1 w inst13|inst11111|inst600|inst3~q $end
$var wire 1 x inst22451|inst3~q $end
$var wire 1 y inst123456|inst1111~combout $end
$var wire 1 z inst123456|inst34555~q $end
$var wire 1 { inst123456|inst454~combout $end
$var wire 1 | inst123456|inst5154~q $end
$var wire 1 } inst6~combout $end
$var wire 1 ~ inst333|inst2|rom~0_combout $end
$var wire 1 !! inst333|inst2|rom~2_combout $end
$var wire 1 "! inst333|inst2|rom~3_combout $end
$var wire 1 #! inst13|inst11111|inst1|inst5~q $end
$var wire 1 $! inst13|inst11111|inst600|inst5~q $end
$var wire 1 %! inst13|inst11111|inst|inst3~q $end
$var wire 1 &! inst22451|inst5~q $end
$var wire 1 '! inst18|inst17|inst1|inst5~q $end
$var wire 1 (! inst18|inst5|inst7|inst1~combout $end
$var wire 1 )! inst20|inst1|inst5~q $end
$var wire 1 *! ~GND~combout $end
$var wire 1 +! inst19|ram_rtl_0|auto_generated|ram_block1a1~portadataout $end
$var wire 1 ,! inst18|inst5|inst6|inst1~combout $end
$var wire 1 -! inst20|inst1|inst4~q $end
$var wire 1 .! inst19|ram_rtl_0|auto_generated|ram_block1a2~portadataout $end
$var wire 1 /! inst18|inst18|inst1|inst3~q $end
$var wire 1 0! inst18|inst5|inst5|inst1~combout $end
$var wire 1 1! inst20|inst1|inst3~q $end
$var wire 1 2! inst19|ram_rtl_0|auto_generated|ram_block1a3~portadataout $end
$var wire 1 3! inst18|inst5|inst4|inst1~0_combout $end
$var wire 1 4! inst20|inst|inst7~q $end
$var wire 1 5! inst19|ram_rtl_0|auto_generated|ram_block1a4~portadataout $end
$var wire 1 6! inst18|inst5|inst3|inst1~0_combout $end
$var wire 1 7! inst18|inst5|inst3|inst1~combout $end
$var wire 1 8! inst20|inst|inst5~q $end
$var wire 1 9! inst19|ram_rtl_0|auto_generated|ram_block1a5~portadataout $end
$var wire 1 :! inst18|inst5|inst2|inst1~0_combout $end
$var wire 1 ;! inst18|inst5|inst2|inst1~combout $end
$var wire 1 <! inst20|inst|inst4~q $end
$var wire 1 =! inst19|ram_rtl_0|auto_generated|ram_block1a6~portadataout $end
$var wire 1 >! inst18|inst5|inst1|inst1~0_combout $end
$var wire 1 ?! inst18|inst5|inst1|inst1~combout $end
$var wire 1 @! inst20|inst|inst3~q $end
$var wire 1 A! inst19|ram_rtl_0|auto_generated|ram_block1a7~portadataout $end
$var wire 1 B! inst18|inst2222|$00000|auto_generated|l1_w0_n0_mux_dataout~0_combout $end
$var wire 1 C! inst20|inst1|inst7~q $end
$var wire 1 D! inst19|ram_rtl_0|auto_generated|ram_block1a0~portadataout $end
$var wire 1 E! inst333|inst2|q [23] $end
$var wire 1 F! inst333|inst2|q [22] $end
$var wire 1 G! inst333|inst2|q [21] $end
$var wire 1 H! inst333|inst2|q [20] $end
$var wire 1 I! inst333|inst2|q [19] $end
$var wire 1 J! inst333|inst2|q [18] $end
$var wire 1 K! inst333|inst2|q [17] $end
$var wire 1 L! inst333|inst2|q [16] $end
$var wire 1 M! inst333|inst2|q [15] $end
$var wire 1 N! inst333|inst2|q [14] $end
$var wire 1 O! inst333|inst2|q [13] $end
$var wire 1 P! inst333|inst2|q [12] $end
$var wire 1 Q! inst333|inst2|q [11] $end
$var wire 1 R! inst333|inst2|q [10] $end
$var wire 1 S! inst333|inst2|q [9] $end
$var wire 1 T! inst333|inst2|q [8] $end
$var wire 1 U! inst333|inst2|q [7] $end
$var wire 1 V! inst333|inst2|q [6] $end
$var wire 1 W! inst333|inst2|q [5] $end
$var wire 1 X! inst333|inst2|q [4] $end
$var wire 1 Y! inst333|inst2|q [3] $end
$var wire 1 Z! inst333|inst2|q [2] $end
$var wire 1 [! inst333|inst2|q [1] $end
$var wire 1 \! inst333|inst2|q [0] $end
$var wire 1 ]! inst19|ram_rtl_0|auto_generated|ram_block1a7_PORTADATAOUT_bus [0] $end
$var wire 1 ^! inst19|ram_rtl_0|auto_generated|ram_block1a6_PORTADATAOUT_bus [0] $end
$var wire 1 _! inst19|ram_rtl_0|auto_generated|ram_block1a5_PORTADATAOUT_bus [0] $end
$var wire 1 `! inst19|ram_rtl_0|auto_generated|ram_block1a4_PORTADATAOUT_bus [0] $end
$var wire 1 a! inst19|ram_rtl_0|auto_generated|ram_block1a3_PORTADATAOUT_bus [0] $end
$var wire 1 b! inst19|ram_rtl_0|auto_generated|ram_block1a2_PORTADATAOUT_bus [0] $end
$var wire 1 c! inst19|ram_rtl_0|auto_generated|ram_block1a1_PORTADATAOUT_bus [0] $end
$var wire 1 d! inst19|ram_rtl_0|auto_generated|ram_block1a0_PORTADATAOUT_bus [0] $end
$upscope $end
$upscope $end
$enddefinitions $end
#0
$dumpvars
0!
0&
0%
0$
0#
0"
0)
0(
0'
01
00
0/
0.
0-
0,
0+
0*
09
08
07
06
05
04
03
02
0<
0;
0:
0D
0C
0B
0A
0@
0?
0>
0=
0L
0K
0J
0I
0H
0G
0F
0E
0Q
0P
0O
0N
0M
0Y
0X
0W
0V
0U
0T
0S
0R
0a
0`
0_
0^
0]
0\
0[
0Z
0b
0c
1d
xe
1f
1g
1h
0i
1j
1k
0l
0m
1n
0o
1p
0q
1r
0s
1t
0u
0v
0w
0x
0y
0z
1{
0|
0}
1~
0!!
1"!
0#!
0$!
0%!
0&!
0'!
0(!
0)!
0*!
0+!
0,!
0-!
0.!
0/!
00!
01!
02!
03!
04!
05!
06!
07!
08!
09!
1:!
0;!
0<!
0=!
1>!
0?!
0@!
0A!
0B!
0C!
0D!
0\!
z[!
zZ!
zY!
zX!
zW!
zV!
zU!
zT!
zS!
zR!
zQ!
zP!
zO!
zN!
zM!
zL!
0K!
zJ!
zI!
zH!
0G!
zF!
0E!
0]!
0^!
0_!
0`!
0a!
0b!
0c!
0d!
$end
#5000
1!
1i
1|
1\!
1K!
1#
1%
1(
10
16
19
0k
1}
0{
1y
1b
#10000
0!
0i
#15000
1!
1i
0|
1z
1l
0}
1{
0y
0b
#20000
0!
0i
#25000
1!
1i
1|
0z
1m
1%!
1#!
1;
1C
1N
1P
1I
1L
0l
0"!
1!!
0j
1}
0{
1y
1b
#30000
0!
0i
#35000
1!
1i
0|
1z
0\!
1G!
1)
06
09
1l
0}
1{
0y
0b
#40000
0!
0i
#45000
1!
1i
1/!
1'!
1|
0z
0m
0%!
1$!
1<
0I
0L
0l
1"!
0!!
1j
1}
0{
1y
1,!
1(!
1B!
1a
1`
1_
1b
1o
0"!
1!!
0~
0n
#50000
0!
0i
#55000
1!
1i
0|
1z
0K!
0#
0%
0(
00
1l
0}
1{
0y
0b
#60000
0!
0i
#65000
1!
1i
1C!
0/!
1-!
1)!
1&!
1|
0z
1m
0#!
0;
0C
0N
0P
0l
0j
1}
0{
1y
0B!
1?!
1;!
17!
13!
10!
1^
1]
1\
1[
1Z
0a
1b
#70000
0!
0i
#75000
1!
1i
0|
1z
1l
0}
1{
0y
0b
#75001
1c!
1b!
1d!
1+!
1.!
1D!
1Y
1W
1X
0>!
0:!
16!
1B!
07!
03!
00!
0(!
0`
0^
0]
0\
1a
0;!
0?!
0Z
0[
#80000
0!
0i
#85000
1!
1i
0)!
0'!
1|
0z
0m
0l
1j
1}
0{
1y
1(!
1`
1b
0o
1"!
0!!
1~
1n
#90000
0!
0i
#95000
1!
1i
0|
1z
1\!
0G!
1K!
1#
1%
1(
10
0)
16
19
1l
0}
1{
0y
0b
#95001
0c!
0+!
0X
0(!
0`
#100000
0!
0i
#105000
1!
1i
1|
0z
1m
1%!
0$!
1#!
1;
1C
1N
1P
0<
1I
1L
0l
0"!
1!!
0j
1}
0{
1y
1b
#110000
0!
0i
#115000
1!
1i
0|
1z
0\!
1G!
1)
06
09
1l
0}
1{
0y
0b
#120000
0!
0i
#125000
1!
1i
1/!
1'!
0&!
1|
0z
0m
0%!
1$!
1<
0I
0L
0l
1>!
1:!
06!
1"!
0!!
1j
1}
0{
1y
1?!
1;!
17!
1(!
1`
1\
1[
1Z
1b
07!
0;!
0?!
0Z
0[
0\
1o
0"!
1!!
0~
0n
#130000
0!
0i
#135000
1!
1i
0|
1z
0K!
0#
0%
0(
00
1l
0}
1{
0y
0b
#140000
0!
0i
#145000
1!
1i
0/!
1)!
1&!
1|
0z
1m
0#!
0;
0C
0N
0P
0l
0>!
0:!
0j
1}
0{
1y
1?!
1;!
0,!
0_
1[
1Z
1b
0;!
0?!
0Z
0[
#150000
0!
0i
#155000
1!
1i
0|
1z
1l
0}
1{
0y
0b
#155001
1c!
1+!
1X
16!
1,!
0(!
0`
1_
#160000
0!
0i
#165000
1!
1i
0)!
0'!
1|
0z
0m
0l
1j
1}
0{
1y
1(!
1`
1b
0o
1"!
0!!
1~
1n
#170000
0!
0i
#175000
1!
1i
0|
1z
1\!
0G!
1K!
1#
1%
1(
10
0)
16
19
1l
0}
1{
0y
0b
#175001
0c!
0+!
0X
0(!
0`
#180000
0!
0i
#185000
1!
1i
1|
0z
1m
1%!
0$!
1#!
1;
1C
1N
1P
0<
1I
1L
0l
0"!
1!!
0j
1}
0{
1y
1b
#190000
0!
0i
#195000
1!
1i
0|
1z
0\!
1G!
1)
06
09
1l
0}
1{
0y
0b
#200000
0!
0i
#205000
1!
1i
1/!
1'!
0&!
1|
0z
0m
0%!
1$!
1<
0I
0L
0l
1>!
1:!
06!
1"!
0!!
1j
1}
0{
1y
1?!
1;!
17!
1(!
1`
1\
1[
1Z
1b
07!
0;!
0?!
0Z
0[
0\
1o
0"!
1!!
0~
0n
#210000
0!
0i
#215000
1!
1i
0|
1z
0K!
0#
0%
0(
00
1l
0}
1{
0y
0b
#220000
0!
0i
#225000
1!
1i
0/!
1)!
1&!
1|
0z
1m
0#!
0;
0C
0N
0P
0l
0>!
0:!
0j
1}
0{
1y
1?!
1;!
0,!
0_
1[
1Z
1b
0;!
0?!
0Z
0[
#230000
0!
0i
#235000
1!
1i
0|
1z
1l
0}
1{
0y
0b
#235001
1c!
1+!
1X
16!
1,!
0(!
0`
1_
#240000
0!
0i
#245000
1!
1i
0)!
0'!
1|
0z
0m
0l
1j
1}
0{
1y
1(!
1`
1b
0o
1"!
0!!
1~
1n
#250000
0!
0i
#255000
1!
1i
0|
1z
1\!
0G!
1K!
1#
1%
1(
10
0)
16
19
1l
0}
1{
0y
0b
#255001
0c!
0+!
0X
0(!
0`
#260000
0!
0i
#265000
1!
1i
1|
0z
1m
1%!
0$!
1#!
1;
1C
1N
1P
0<
1I
1L
0l
0"!
1!!
0j
1}
0{
1y
1b
#270000
0!
0i
#275000
1!
1i
0|
1z
0\!
1G!
1)
06
09
1l
0}
1{
0y
0b
#280000
0!
0i
#285000
1!
1i
1/!
1'!
0&!
1|
0z
0m
0%!
1$!
1<
0I
0L
0l
1>!
1:!
06!
1"!
0!!
1j
1}
0{
1y
1?!
1;!
17!
1(!
1`
1\
1[
1Z
1b
07!
0;!
0?!
0Z
0[
0\
1o
0"!
1!!
0~
0n
#290000
0!
0i
#295000
1!
1i
0|
1z
0K!
0#
0%
0(
00
1l
0}
1{
0y
0b
#300000
0!
0i
#305000
1!
1i
0/!
1)!
1&!
1|
0z
1m
0#!
0;
0C
0N
0P
0l
0>!
0:!
0j
1}
0{
1y
1?!
1;!
0,!
0_
1[
1Z
1b
0;!
0?!
0Z
0[
#310000
0!
0i
#315000
1!
1i
0|
1z
1l
0}
1{
0y
0b
#315001
1c!
1+!
1X
16!
1,!
0(!
0`
1_
#320000
0!
0i
#325000
1!
1i
0)!
0'!
1|
0z
0m
0l
1j
1}
0{
1y
1(!
1`
1b
0o
1"!
0!!
1~
1n
#330000
0!
0i
#335000
1!
1i
0|
1z
1\!
0G!
1K!
1#
1%
1(
10
0)
16
19
1l
0}
1{
0y
0b
#335001
0c!
0+!
0X
0(!
0`
#340000
0!
0i
#345000
1!
1i
1|
0z
1m
1%!
0$!
1#!
1;
1C
1N
1P
0<
1I
1L
0l
0"!
1!!
0j
1}
0{
1y
1b
#350000
0!
0i
#355000
1!
1i
0|
1z
0\!
1G!
1)
06
09
1l
0}
1{
0y
0b
#360000
0!
0i
#365000
1!
1i
1/!
1'!
0&!
1|
0z
0m
0%!
1$!
1<
0I
0L
0l
1>!
1:!
06!
1"!
0!!
1j
1}
0{
1y
1?!
1;!
17!
1(!
1`
1\
1[
1Z
1b
07!
0;!
0?!
0Z
0[
0\
1o
0"!
1!!
0~
0n
#370000
0!
0i
#375000
1!
1i
0|
1z
0K!
0#
0%
0(
00
1l
0}
1{
0y
0b
#380000
0!
0i
#385000
1!
1i
0/!
1)!
1&!
1|
0z
1m
0#!
0;
0C
0N
0P
0l
0>!
0:!
0j
1}
0{
1y
1?!
1;!
0,!
0_
1[
1Z
1b
0;!
0?!
0Z
0[
#390000
0!
0i
#395000
1!
1i
0|
1z
1l
0}
1{
0y
0b
#395001
1c!
1+!
1X
16!
1,!
0(!
0`
1_
#400000
0!
0i
#405000
1!
1i
0)!
0'!
1|
0z
0m
0l
1j
1}
0{
1y
1(!
1`
1b
0o
1"!
0!!
1~
1n
#410000
0!
0i
#415000
1!
1i
0|
1z
1\!
0G!
1K!
1#
1%
1(
10
0)
16
19
1l
0}
1{
0y
0b
#415001
0c!
0+!
0X
0(!
0`
#420000
0!
0i
#425000
1!
1i
1|
0z
1m
1%!
0$!
1#!
1;
1C
1N
1P
0<
1I
1L
0l
0"!
1!!
0j
1}
0{
1y
1b
#430000
0!
0i
#435000
1!
1i
0|
1z
0\!
1G!
1)
06
09
1l
0}
1{
0y
0b
#440000
0!
0i
#445000
1!
1i
1/!
1'!
0&!
1|
0z
0m
0%!
1$!
1<
0I
0L
0l
1>!
1:!
06!
1"!
0!!
1j
1}
0{
1y
1?!
1;!
17!
1(!
1`
1\
1[
1Z
1b
07!
0;!
0?!
0Z
0[
0\
1o
0"!
1!!
0~
0n
#450000
0!
0i
#455000
1!
1i
0|
1z
0K!
0#
0%
0(
00
1l
0}
1{
0y
0b
#460000
0!
0i
#465000
1!
1i
0/!
1)!
1&!
1|
0z
1m
0#!
0;
0C
0N
0P
0l
0>!
0:!
0j
1}
0{
1y
1?!
1;!
0,!
0_
1[
1Z
1b
0;!
0?!
0Z
0[
#470000
0!
0i
#475000
1!
1i
0|
1z
1l
0}
1{
0y
0b
#475001
1c!
1+!
1X
16!
1,!
0(!
0`
1_
#480000
0!
0i
#485000
1!
1i
0)!
0'!
1|
0z
0m
0l
1j
1}
0{
1y
1(!
1`
1b
0o
1"!
0!!
1~
1n
#490000
0!
0i
#495000
1!
1i
0|
1z
1\!
0G!
1K!
1#
1%
1(
10
0)
16
19
1l
0}
1{
0y
0b
#495001
0c!
0+!
0X
0(!
0`
#500000
0!
0i
#505000
1!
1i
1|
0z
1m
1%!
0$!
1#!
1;
1C
1N
1P
0<
1I
1L
0l
0"!
1!!
0j
1}
0{
1y
1b
#510000
0!
0i
#515000
1!
1i
0|
1z
0\!
1G!
1)
06
09
1l
0}
1{
0y
0b
#520000
0!
0i
#525000
1!
1i
1/!
1'!
0&!
1|
0z
0m
0%!
1$!
1<
0I
0L
0l
1>!
1:!
06!
1"!
0!!
1j
1}
0{
1y
1?!
1;!
17!
1(!
1`
1\
1[
1Z
1b
07!
0;!
0?!
0Z
0[
0\
1o
0"!
1!!
0~
0n
#530000
0!
0i
#535000
1!
1i
0|
1z
0K!
0#
0%
0(
00
1l
0}
1{
0y
0b
#540000
0!
0i
#545000
1!
1i
0/!
1)!
1&!
1|
0z
1m
0#!
0;
0C
0N
0P
0l
0>!
0:!
0j
1}
0{
1y
1?!
1;!
0,!
0_
1[
1Z
1b
0;!
0?!
0Z
0[
#550000
0!
0i
#555000
1!
1i
0|
1z
1l
0}
1{
0y
0b
#555001
1c!
1+!
1X
16!
1,!
0(!
0`
1_
#560000
0!
0i
#565000
1!
1i
0)!
0'!
1|
0z
0m
0l
1j
1}
0{
1y
1(!
1`
1b
0o
1"!
0!!
1~
1n
#570000
0!
0i
#575000
1!
1i
0|
1z
1\!
0G!
1K!
1#
1%
1(
10
0)
16
19
1l
0}
1{
0y
0b
#575001
0c!
0+!
0X
0(!
0`
#580000
0!
0i
#585000
1!
1i
1|
0z
1m
1%!
0$!
1#!
1;
1C
1N
1P
0<
1I
1L
0l
0"!
1!!
0j
1}
0{
1y
1b
#590000
0!
0i
#595000
1!
1i
0|
1z
0\!
1G!
1)
06
09
1l
0}
1{
0y
0b
#600000
0!
0i
#605000
1!
1i
1/!
1'!
0&!
1|
0z
0m
0%!
1$!
1<
0I
0L
0l
1>!
1:!
06!
1"!
0!!
1j
1}
0{
1y
1?!
1;!
17!
1(!
1`
1\
1[
1Z
1b
07!
0;!
0?!
0Z
0[
0\
1o
0"!
1!!
0~
0n
#610000
0!
0i
#615000
1!
1i
0|
1z
0K!
0#
0%
0(
00
1l
0}
1{
0y
0b
#620000
0!
0i
#625000
1!
1i
0/!
1)!
1&!
1|
0z
1m
0#!
0;
0C
0N
0P
0l
0>!
0:!
0j
1}
0{
1y
1?!
1;!
0,!
0_
1[
1Z
1b
0;!
0?!
0Z
0[
#630000
0!
0i
#635000
1!
1i
0|
1z
1l
0}
1{
0y
0b
#635001
1c!
1+!
1X
16!
1,!
0(!
0`
1_
#640000
0!
0i
#645000
1!
1i
0)!
0'!
1|
0z
0m
0l
1j
1}
0{
1y
1(!
1`
1b
0o
1"!
0!!
1~
1n
#650000
0!
0i
#655000
1!
1i
0|
1z
1\!
0G!
1K!
1#
1%
1(
10
0)
16
19
1l
0}
1{
0y
0b
#655001
0c!
0+!
0X
0(!
0`
#660000
0!
0i
#665000
1!
1i
1|
0z
1m
1%!
0$!
1#!
1;
1C
1N
1P
0<
1I
1L
0l
0"!
1!!
0j
1}
0{
1y
1b
#670000
0!
0i
#675000
1!
1i
0|
1z
0\!
1G!
1)
06
09
1l
0}
1{
0y
0b
#680000
0!
0i
#685000
1!
1i
1/!
1'!
0&!
1|
0z
0m
0%!
1$!
1<
0I
0L
0l
1>!
1:!
06!
1"!
0!!
1j
1}
0{
1y
1?!
1;!
17!
1(!
1`
1\
1[
1Z
1b
07!
0;!
0?!
0Z
0[
0\
1o
0"!
1!!
0~
0n
#690000
0!
0i
#695000
1!
1i
0|
1z
0K!
0#
0%
0(
00
1l
0}
1{
0y
0b
#700000
0!
0i
#705000
1!
1i
0/!
1)!
1&!
1|
0z
1m
0#!
0;
0C
0N
0P
0l
0>!
0:!
0j
1}
0{
1y
1?!
1;!
0,!
0_
1[
1Z
1b
0;!
0?!
0Z
0[
#710000
0!
0i
#715000
1!
1i
0|
1z
1l
0}
1{
0y
0b
#715001
1c!
1+!
1X
16!
1,!
0(!
0`
1_
#720000
0!
0i
#725000
1!
1i
0)!
0'!
1|
0z
0m
0l
1j
1}
0{
1y
1(!
1`
1b
0o
1"!
0!!
1~
1n
#730000
0!
0i
#735000
1!
1i
0|
1z
1\!
0G!
1K!
1#
1%
1(
10
0)
16
19
1l
0}
1{
0y
0b
#735001
0c!
0+!
0X
0(!
0`
#740000
0!
0i
#745000
1!
1i
1|
0z
1m
1%!
0$!
1#!
1;
1C
1N
1P
0<
1I
1L
0l
0"!
1!!
0j
1}
0{
1y
1b
#750000
0!
0i
#755000
1!
1i
0|
1z
0\!
1G!
1)
06
09
1l
0}
1{
0y
0b
#760000
0!
0i
#765000
1!
1i
1/!
1'!
0&!
1|
0z
0m
0%!
1$!
1<
0I
0L
0l
1>!
1:!
06!
1"!
0!!
1j
1}
0{
1y
1?!
1;!
17!
1(!
1`
1\
1[
1Z
1b
07!
0;!
0?!
0Z
0[
0\
1o
0"!
1!!
0~
0n
#770000
0!
0i
#775000
1!
1i
0|
1z
0K!
0#
0%
0(
00
1l
0}
1{
0y
0b
#780000
0!
0i
#785000
1!
1i
0/!
1)!
1&!
1|
0z
1m
0#!
0;
0C
0N
0P
0l
0>!
0:!
0j
1}
0{
1y
1?!
1;!
0,!
0_
1[
1Z
1b
0;!
0?!
0Z
0[
#790000
0!
0i
#795000
1!
1i
0|
1z
1l
0}
1{
0y
0b
#795001
1c!
1+!
1X
16!
1,!
0(!
0`
1_
#800000
0!
0i
#805000
1!
1i
0)!
0'!
1|
0z
0m
0l
1j
1}
0{
1y
1(!
1`
1b
0o
1"!
0!!
1~
1n
#810000
0!
0i
#815000
1!
1i
0|
1z
1\!
0G!
1K!
1#
1%
1(
10
0)
16
19
1l
0}
1{
0y
0b
#815001
0c!
0+!
0X
0(!
0`
#820000
0!
0i
#825000
1!
1i
1|
0z
1m
1%!
0$!
1#!
1;
1C
1N
1P
0<
1I
1L
0l
0"!
1!!
0j
1}
0{
1y
1b
#830000
0!
0i
#835000
1!
1i
0|
1z
0\!
1G!
1)
06
09
1l
0}
1{
0y
0b
#840000
0!
0i
#845000
1!
1i
1/!
1'!
0&!
1|
0z
0m
0%!
1$!
1<
0I
0L
0l
1>!
1:!
06!
1"!
0!!
1j
1}
0{
1y
1?!
1;!
17!
1(!
1`
1\
1[
1Z
1b
07!
0;!
0?!
0Z
0[
0\
1o
0"!
1!!
0~
0n
#850000
0!
0i
#855000
1!
1i
0|
1z
0K!
0#
0%
0(
00
1l
0}
1{
0y
0b
#860000
0!
0i
#865000
1!
1i
0/!
1)!
1&!
1|
0z
1m
0#!
0;
0C
0N
0P
0l
0>!
0:!
0j
1}
0{
1y
1?!
1;!
0,!
0_
1[
1Z
1b
0;!
0?!
0Z
0[
#870000
0!
0i
#875000
1!
1i
0|
1z
1l
0}
1{
0y
0b
#875001
1c!
1+!
1X
16!
1,!
0(!
0`
1_
#880000
0!
0i
#885000
1!
1i
0)!
0'!
1|
0z
0m
0l
1j
1}
0{
1y
1(!
1`
1b
0o
1"!
0!!
1~
1n
#890000
0!
0i
#895000
1!
1i
0|
1z
1\!
0G!
1K!
1#
1%
1(
10
0)
16
19
1l
0}
1{
0y
0b
#895001
0c!
0+!
0X
0(!
0`
#900000
0!
0i
#905000
1!
1i
1|
0z
1m
1%!
0$!
1#!
1;
1C
1N
1P
0<
1I
1L
0l
0"!
1!!
0j
1}
0{
1y
1b
#910000
0!
0i
#915000
1!
1i
0|
1z
0\!
1G!
1)
06
09
1l
0}
1{
0y
0b
#920000
0!
0i
#925000
1!
1i
1/!
1'!
0&!
1|
0z
0m
0%!
1$!
1<
0I
0L
0l
1>!
1:!
06!
1"!
0!!
1j
1}
0{
1y
1?!
1;!
17!
1(!
1`
1\
1[
1Z
1b
07!
0;!
0?!
0Z
0[
0\
1o
0"!
1!!
0~
0n
#930000
0!
0i
#935000
1!
1i
0|
1z
0K!
0#
0%
0(
00
1l
0}
1{
0y
0b
#940000
0!
0i
#945000
1!
1i
0/!
1)!
1&!
1|
0z
1m
0#!
0;
0C
0N
0P
0l
0>!
0:!
0j
1}
0{
1y
1?!
1;!
0,!
0_
1[
1Z
1b
0;!
0?!
0Z
0[
#950000
0!
0i
#955000
1!
1i
0|
1z
1l
0}
1{
0y
0b
#955001
1c!
1+!
1X
16!
1,!
0(!
0`
1_
#960000
0!
0i
#965000
1!
1i
0)!
0'!
1|
0z
0m
0l
1j
1}
0{
1y
1(!
1`
1b
0o
1"!
0!!
1~
1n
#970000
0!
0i
#975000
1!
1i
0|
1z
1\!
0G!
1K!
1#
1%
1(
10
0)
16
19
1l
0}
1{
0y
0b
#975001
0c!
0+!
0X
0(!
0`
#980000
0!
0i
#985000
1!
1i
1|
0z
1m
1%!
0$!
1#!
1;
1C
1N
1P
0<
1I
1L
0l
0"!
1!!
0j
1}
0{
1y
1b
#990000
0!
0i
#995000
1!
1i
0|
1z
0\!
1G!
1)
06
09
1l
0}
1{
0y
0b
